mc23_13p6TeV.603331.PhPy8EG_A14_WmH125_lvbb_VpT.deriv.DAOD_PHYSLITE.e8544_s4159_r15224_p6266
mc23_13p6TeV.603331.PhPy8EG_A14_WmH125_lvbb_VpT.deriv.DAOD_PHYSLITE.e8544_s4162_r14622_p6266
mc23_13p6TeV.603332.PhPy8EG_A14_WpH125_lvbb_VpT.deriv.DAOD_PHYSLITE.e8544_s4159_r15224_p6266
mc23_13p6TeV.603332.PhPy8EG_A14_WpH125_lvbb_VpT.deriv.DAOD_PHYSLITE.e8544_s4162_r14622_p6266
mc23_13p6TeV.603333.PhPy8EG_A14_qqZllH125bb_VpT.deriv.DAOD_PHYSLITE.e8544_s4159_r15224_p6266
mc23_13p6TeV.603333.PhPy8EG_A14_qqZllH125bb_VpT.deriv.DAOD_PHYSLITE.e8544_s4162_r14622_p6266
mc23_13p6TeV.603335.PhPy8EG_A14_ggZllH125bb.deriv.DAOD_PHYSLITE.e8544_s4159_r15224_p6266
mc23_13p6TeV.603335.PhPy8EG_A14_ggZllH125bb.deriv.DAOD_PHYSLITE.e8544_s4162_r14622_p6266
mc23_13p6TeV.603414.PhPy8EG_NNPDF23_A14_ggH125_NNLOPS_tautauh30h20.deriv.DAOD_PHYSLITE.e8559_s4159_r15224_p6266
mc23_13p6TeV.603414.PhPy8EG_NNPDF23_A14_ggH125_NNLOPS_tautauh30h20.deriv.DAOD_PHYSLITE.e8559_s4162_r14622_p6266
mc23_13p6TeV.603415.PhPy8EG_NNPDF23_A14_ggH125_NNLOPS_tautaulp15hm20.deriv.DAOD_PHYSLITE.e8559_s4159_r15224_p6266
mc23_13p6TeV.603415.PhPy8EG_NNPDF23_A14_ggH125_NNLOPS_tautaulp15hm20.deriv.DAOD_PHYSLITE.e8559_s4162_r14622_p6266
mc23_13p6TeV.603416.PhPy8EG_NNPDF23_A14_ggH125_NNLOPS_tautaulm15hp20.deriv.DAOD_PHYSLITE.e8559_s4159_r15224_p6266
mc23_13p6TeV.603416.PhPy8EG_NNPDF23_A14_ggH125_NNLOPS_tautaulm15hp20.deriv.DAOD_PHYSLITE.e8559_s4162_r14622_p6266
mc23_13p6TeV.603417.PhPy8EG_NNPDF23_A14_ggH125_NNLOPS_tautaul13l7.deriv.DAOD_PHYSLITE.e8559_s4159_r15224_p6266
mc23_13p6TeV.603417.PhPy8EG_NNPDF23_A14_ggH125_NNLOPS_tautaul13l7.deriv.DAOD_PHYSLITE.e8559_s4162_r14622_p6266
mc23_13p6TeV.603427.PhPy8EG_NNPDF23_A14_WpH125J_Winc_tautau.deriv.DAOD_PHYSLITE.e8559_s4159_r15224_p6266
mc23_13p6TeV.603427.PhPy8EG_NNPDF23_A14_WpH125J_Winc_tautau.deriv.DAOD_PHYSLITE.e8559_s4162_r14622_p6266
mc23_13p6TeV.603426.PhPy8EG_NNPDF23_A14_WmH125J_Winc_tautau.deriv.DAOD_PHYSLITE.e8559_s4159_r15224_p6266
mc23_13p6TeV.603426.PhPy8EG_NNPDF23_A14_WmH125J_Winc_tautau.deriv.DAOD_PHYSLITE.e8559_s4162_r14622_p6266
mc23_13p6TeV.603428.PhPy8EG_NNPDF23_A14_ZH125J_Zinc_tautau.deriv.DAOD_PHYSLITE.e8559_s4162_r14622_p6266
mc23_13p6TeV.603428.PhPy8EG_NNPDF23_A14_ZH125J_Zinc_tautau.deriv.DAOD_PHYSLITE.e8559_s4162_r14622_p6266
mc23_13p6TeV.603418.PhPy8EG_NNPDF23_A14_ggZH125_Zinc_tautau.deriv.DAOD_PHYSLITE.e8559_s4159_r15224_p6266
mc23_13p6TeV.603418.PhPy8EG_NNPDF23_A14_ggZH125_Zinc_tautau.deriv.DAOD_PHYSLITE.e8559_s4162_r14622_p6266
mc23_13p6TeV.602637.PhPy8EG_PDF4LHC21_ttH125_dilep.deriv.DAOD_PHYSLITE.e8549_s4159_r15224_p6266
mc23_13p6TeV.602637.PhPy8EG_PDF4LHC21_ttH125_dilep.deriv.DAOD_PHYSLITE.e8549_s4162_r14622_p6266
mc23_13p6TeV.602638.PhPy8EG_PDF4LHC21_ttH125_semilep.deriv.DAOD_PHYSLITE.e8549_s4159_r15224_p6266
mc23_13p6TeV.602638.PhPy8EG_PDF4LHC21_ttH125_semilep.deriv.DAOD_PHYSLITE.e8549_s4162_r14622_p6266
mc23_13p6TeV.603419.PhPy8EG_NNPDF23_A14_ttH125_allhad_tautau.deriv.DAOD_PHYSLITE.e8559_s4159_r15224_p6266
mc23_13p6TeV.603419.PhPy8EG_NNPDF23_A14_ttH125_allhad_tautau.deriv.DAOD_PHYSLITE.e8559_s4162_r14622_p6266
mc23_13p6TeV.603420.PhPy8EG_NNPDF23_A14_ttH125_dilep_tautau.deriv.DAOD_PHYSLITE.e8559_s4159_r15224_p6266
mc23_13p6TeV.603420.PhPy8EG_NNPDF23_A14_ttH125_dilep_tautau.deriv.DAOD_PHYSLITE.e8559_s4162_r14622_p6266
mc23_13p6TeV.603421.PhPy8EG_NNPDF23_A14_ttH125_semilep_tautau.deriv.DAOD_PHYSLITE.e8559_s4159_r15224_p6266
mc23_13p6TeV.603421.PhPy8EG_NNPDF23_A14_ttH125_semilep_tautau.deriv.DAOD_PHYSLITE.e8559_s4162_r14622_p6266
mc23_13p6TeV.601606.PhPy8EG_A14_qqZhadH125tautau_VpT.deriv.DAOD_PHYSLITE.e8537_s4159_r15224_p6266
mc23_13p6TeV.601606.PhPy8EG_A14_qqZhadH125tautau_VpT.deriv.DAOD_PHYSLITE.e8537_s4162_r14622_p6266
mc23_13p6TeV.603508.PhPy8EG_PDF4LHC21_ggZllH125_HWW_WWlvlv.deriv.DAOD_PHYSLITE.e8566_s4159_r15530_p6266
mc23_13p6TeV.603508.PhPy8EG_PDF4LHC21_ggZllH125_HWW_WWlvlv.deriv.DAOD_PHYSLITE.e8566_s4162_r15540_p6266
mc23_13p6TeV.603509.PhPy8EG_PDF4LHC21_ggZllH125_HWW_WWlvqq.deriv.DAOD_PHYSLITE.e8566_s4159_r15530_p6266
mc23_13p6TeV.603509.PhPy8EG_PDF4LHC21_ggZllH125_HWW_WWlvqq.deriv.DAOD_PHYSLITE.e8566_s4162_r15540_p6266
mc23_13p6TeV.603510.PhPy8EG_PDF4LHC21_WmH125_Wlep_VpTbias_HWW_WWlvlv.deriv.DAOD_PHYSLITE.e8566_s4159_r15530_p6266
mc23_13p6TeV.603510.PhPy8EG_PDF4LHC21_WmH125_Wlep_VpTbias_HWW_WWlvlv.deriv.DAOD_PHYSLITE.e8566_s4162_r15540_p6266
mc23_13p6TeV.603511.PhPy8EG_PDF4LHC21_WmH125_Wlep_VpTbias_HWW_WWlvqq.deriv.DAOD_PHYSLITE.e8566_s4159_r15530_p6266                    
mc23_13p6TeV.603511.PhPy8EG_PDF4LHC21_WmH125_Wlep_VpTbias_HWW_WWlvqq.deriv.DAOD_PHYSLITE.e8566_s4162_r15540_p6266
mc23_13p6TeV.603512.PhPy8EG_PDF4LHC21_WpH125_Wlep_VpTbias_HWW_WWlvlv.deriv.DAOD_PHYSLITE.e8566_s4159_r15530_p6266                    
mc23_13p6TeV.603512.PhPy8EG_PDF4LHC21_WpH125_Wlep_VpTbias_HWW_WWlvlv.deriv.DAOD_PHYSLITE.e8566_s4162_r15540_p6266                    
mc23_13p6TeV.603513.PhPy8EG_PDF4LHC21_WpH125_Wlep_VpTbias_HWW_WWlvqq.deriv.DAOD_PHYSLITE.e8566_s4159_r15530_p6266                    
mc23_13p6TeV.603513.PhPy8EG_PDF4LHC21_WpH125_Wlep_VpTbias_HWW_WWlvqq.deriv.DAOD_PHYSLITE.e8566_s4162_r15540_p6266                    
mc23_13p6TeV.603514.PhPy8EG_PDF4LHC21_qqZllH125_VpTbias_HWW_WWlvlv.deriv.DAOD_PHYSLITE.e8566_s4159_r15530_p6266                      
mc23_13p6TeV.603514.PhPy8EG_PDF4LHC21_qqZllH125_VpTbias_HWW_WWlvlv.deriv.DAOD_PHYSLITE.e8566_s4162_r15540_p6266                      
mc23_13p6TeV.603515.PhPy8EG_PDF4LHC21_qqZllH125_VpTbias_HWW_WWlvqq.deriv.DAOD_PHYSLITE.e8566_s4159_r15530_p6266                      
mc23_13p6TeV.603515.PhPy8EG_PDF4LHC21_qqZllH125_VpTbias_HWW_WWlvqq.deriv.DAOD_PHYSLITE.e8566_s4162_r15540_p6266
mc23_13p6TeV.602521.PhPy8EG_PDF4LHC21_ggZH125_Zincl_HWW_WWlvlv.deriv.DAOD_PHYSLITE.e8566_s4159_r15530_p6266                          
mc23_13p6TeV.602521.PhPy8EG_PDF4LHC21_ggZH125_Zincl_HWW_WWlvlv.deriv.DAOD_PHYSLITE.e8566_s4162_r15540_p6266                          
mc23_13p6TeV.602522.PhPy8EG_PDF4LHC21_ggZH125_Zincl_HWW_WWlvqq.deriv.DAOD_PHYSLITE.e8566_s4159_r15530_p6266                          
mc23_13p6TeV.602522.PhPy8EG_PDF4LHC21_ggZH125_Zincl_HWW_WWlvqq.deriv.DAOD_PHYSLITE.e8566_s4162_r15540_p6266                          
mc23_13p6TeV.602523.PhPy8EG_PDF4LHC21_WmH125J_Wincl_MINLO_HWW_WWlvlv.deriv.DAOD_PHYSLITE.e8566_s4159_r15530_p6266                    
mc23_13p6TeV.602523.PhPy8EG_PDF4LHC21_WmH125J_Wincl_MINLO_HWW_WWlvlv.deriv.DAOD_PHYSLITE.e8566_s4162_r15540_p6266                    
mc23_13p6TeV.602524.PhPy8EG_PDF4LHC21_WmH125J_Wincl_MINLO_HWW_WWlvqq.deriv.DAOD_PHYSLITE.e8566_s4159_r15530_p6266                    
mc23_13p6TeV.602524.PhPy8EG_PDF4LHC21_WmH125J_Wincl_MINLO_HWW_WWlvqq.deriv.DAOD_PHYSLITE.e8566_s4162_r15540_p6266                    
mc23_13p6TeV.602525.PhPy8EG_PDF4LHC21_WpH125J_Wincl_MINLO_HWW_WWlvlv.deriv.DAOD_PHYSLITE.e8566_s4159_r15530_p6266                    
mc23_13p6TeV.602525.PhPy8EG_PDF4LHC21_WpH125J_Wincl_MINLO_HWW_WWlvlv.deriv.DAOD_PHYSLITE.e8566_s4162_r15540_p6266                    
mc23_13p6TeV.602526.PhPy8EG_PDF4LHC21_WpH125J_Wincl_MINLO_HWW_WWlvqq.deriv.DAOD_PHYSLITE.e8566_s4159_r15530_p6266                    
mc23_13p6TeV.602526.PhPy8EG_PDF4LHC21_WpH125J_Wincl_MINLO_HWW_WWlvqq.deriv.DAOD_PHYSLITE.e8566_s4162_r15540_p6266                    
mc23_13p6TeV.602527.PhPy8EG_PDF4LHC21_ZH125J_Zincl_MINLO_HWW_WWlvlv.deriv.DAOD_PHYSLITE.e8566_s4159_r15530_p6266                     
mc23_13p6TeV.602527.PhPy8EG_PDF4LHC21_ZH125J_Zincl_MINLO_HWW_WWlvlv.deriv.DAOD_PHYSLITE.e8566_s4162_r15540_p6266                     
mc23_13p6TeV.602528.PhPy8EG_PDF4LHC21_ZH125J_Zincl_MINLO_HWW_WWlvqq.deriv.DAOD_PHYSLITE.e8566_s4159_r15530_p6266                         
mc23_13p6TeV.602528.PhPy8EG_PDF4LHC21_ZH125J_Zincl_MINLO_HWW_WWlvqq.deriv.DAOD_PHYSLITE.e8566_s4162_r15540_p6266
mc23_13p6TeV.602632.PhPy8EG_PDF4LHC21_ggH125_NNLOPS_WWlvlv.deriv.DAOD_PHYSLITE.e8557_s4162_r15540_p6266


