mc23_13p6TeV.513093.MGPy8EG_Wenu_FxFx3jHT2bias_SW_BFilter.deriv.DAOD_PHYS.e8514_s4162_r14622_p6266
mc23_13p6TeV.513093.MGPy8EG_Wenu_FxFx3jHT2bias_SW_BFilter.deriv.DAOD_PHYS.e8514_s4159_r15224_p6266

mc23_13p6TeV.513094.MGPy8EG_Wenu_FxFx3jHT2bias_SW_CFilterBVeto.deriv.DAOD_PHYS.e8514_s4162_r14622_p6266
mc23_13p6TeV.513094.MGPy8EG_Wenu_FxFx3jHT2bias_SW_CFilterBVeto.deriv.DAOD_PHYS.e8514_s4159_r15224_p6266

mc23_13p6TeV.513095.MGPy8EG_Wenu_FxFx3jHT2bias_SW_CVetoBVeto.deriv.DAOD_PHYS.e8514_s4162_r14622_p6266
mc23_13p6TeV.513095.MGPy8EG_Wenu_FxFx3jHT2bias_SW_CVetoBVeto.deriv.DAOD_PHYS.e8514_s4159_r15224_p6266

mc23_13p6TeV.513096.MGPy8EG_Wmunu_FxFx3jHT2bias_SW_BFilter.deriv.DAOD_PHYS.e8514_s4162_r14622_p6266
mc23_13p6TeV.513096.MGPy8EG_Wmunu_FxFx3jHT2bias_SW_BFilter.deriv.DAOD_PHYS.e8514_s4159_r15224_p6266

mc23_13p6TeV.513097.MGPy8EG_Wmunu_FxFx3jHT2bias_SW_CFilterBVeto.deriv.DAOD_PHYS.e8514_s4162_r14622_p6266
mc23_13p6TeV.513097.MGPy8EG_Wmunu_FxFx3jHT2bias_SW_CFilterBVeto.deriv.DAOD_PHYS.e8514_s4159_r15224_p6266

mc23_13p6TeV.513098.MGPy8EG_Wmunu_FxFx3jHT2bias_SW_CVetoBVeto.deriv.DAOD_PHYS.e8514_s4162_r14622_p6266
mc23_13p6TeV.513098.MGPy8EG_Wmunu_FxFx3jHT2bias_SW_CVetoBVeto.deriv.DAOD_PHYS.e8514_s4159_r15224_p6266

mc23_13p6TeV.513099.MGPy8EG_Wtaunu_L_FxFx3jHT2bias_SW_BFilter.deriv.DAOD_PHYS.e8514_s4162_r14622_p6266
mc23_13p6TeV.513099.MGPy8EG_Wtaunu_L_FxFx3jHT2bias_SW_BFilter.deriv.DAOD_PHYS.e8514_s4159_r15224_p6266

mc23_13p6TeV.513100.MGPy8EG_Wtaunu_L_FxFx3jHT2bias_SW_CFilterBVeto.deriv.DAOD_PHYS.e8514_s4162_r14622_p6266
mc23_13p6TeV.513100.MGPy8EG_Wtaunu_L_FxFx3jHT2bias_SW_CFilterBVeto.deriv.DAOD_PHYS.e8514_s4159_r15224_p6266

mc23_13p6TeV.513101.MGPy8EG_Wtaunu_L_FxFx3jHT2bias_SW_CVetoBVeto.deriv.DAOD_PHYS.e8514_s4162_r14622_p6266
mc23_13p6TeV.513101.MGPy8EG_Wtaunu_L_FxFx3jHT2bias_SW_CVetoBVeto.deriv.DAOD_PHYS.e8514_s4159_r15224_p6266

mc23_13p6TeV.513102.MGPy8EG_Wtaunu_H_FxFx3jHT2bias_SW_BFilter.deriv.DAOD_PHYS.e8514_s4162_r14622_p6266
mc23_13p6TeV.513102.MGPy8EG_Wtaunu_H_FxFx3jHT2bias_SW_BFilter.deriv.DAOD_PHYS.e8514_s4159_r15224_p6266

mc23_13p6TeV.513103.MGPy8EG_Wtaunu_H_FxFx3jHT2bias_SW_CFilterBVeto.deriv.DAOD_PHYS.e8514_s4162_r14622_p6266
mc23_13p6TeV.513103.MGPy8EG_Wtaunu_H_FxFx3jHT2bias_SW_CFilterBVeto.deriv.DAOD_PHYS.e8514_s4159_r15224_p6266

mc23_13p6TeV.513104.MGPy8EG_Wtaunu_H_FxFx3jHT2bias_SW_CVetoBVeto.deriv.DAOD_PHYS.e8514_s4162_r14622_p6266
mc23_13p6TeV.513104.MGPy8EG_Wtaunu_H_FxFx3jHT2bias_SW_CVetoBVeto.deriv.DAOD_PHYS.e8514_s4159_r15224_p6266
