mc20_13TeV.363356.Sherpa_221_NNPDF30NNLO_ZqqZll.deriv.DAOD_PHYSLITE.e5525_s3681_r13144_r13146_p5855
mc20_13TeV.363356.Sherpa_221_NNPDF30NNLO_ZqqZll.deriv.DAOD_PHYSLITE.e5525_s3681_r13145_r13146_p5855
mc20_13TeV.363356.Sherpa_221_NNPDF30NNLO_ZqqZll.deriv.DAOD_PHYSLITE.e5525_s3681_r13167_r13146_p5855
mc20_13TeV.363358.Sherpa_221_NNPDF30NNLO_WqqZll.deriv.DAOD_PHYSLITE.e5525_s3681_r13144_r13146_p5855
mc20_13TeV.363358.Sherpa_221_NNPDF30NNLO_WqqZll.deriv.DAOD_PHYSLITE.e5525_s3681_r13145_r13146_p5855
mc20_13TeV.363358.Sherpa_221_NNPDF30NNLO_WqqZll.deriv.DAOD_PHYSLITE.e5525_s3681_r13167_r13146_p5855
mc20_13TeV.364250.Sherpa_222_NNPDF30NNLO_llll.deriv.DAOD_PHYSLITE.e5894_s3681_r13144_r13146_p5855
mc20_13TeV.364250.Sherpa_222_NNPDF30NNLO_llll.deriv.DAOD_PHYSLITE.e5894_s3681_r13145_r13146_p5855
mc20_13TeV.364250.Sherpa_222_NNPDF30NNLO_llll.deriv.DAOD_PHYSLITE.e5894_s3681_r13167_r13146_p5855
mc20_13TeV.364253.Sherpa_222_NNPDF30NNLO_lllv.deriv.DAOD_PHYSLITE.e5916_s3681_r13144_r13146_p5855
mc20_13TeV.364253.Sherpa_222_NNPDF30NNLO_lllv.deriv.DAOD_PHYSLITE.e5916_s3681_r13145_r13146_p5855
mc20_13TeV.364253.Sherpa_222_NNPDF30NNLO_lllv.deriv.DAOD_PHYSLITE.e5916_s3681_r13167_r13146_p5855
mc20_13TeV.364254.Sherpa_222_NNPDF30NNLO_llvv.deriv.DAOD_PHYSLITE.e5916_s3681_r13144_r13146_p5855
mc20_13TeV.364254.Sherpa_222_NNPDF30NNLO_llvv.deriv.DAOD_PHYSLITE.e5916_s3681_r13145_r13146_p5855
mc20_13TeV.364254.Sherpa_222_NNPDF30NNLO_llvv.deriv.DAOD_PHYSLITE.e5916_s3681_r13167_r13146_p5855
mc20_13TeV.364255.Sherpa_222_NNPDF30NNLO_lvvv.deriv.DAOD_PHYSLITE.e5916_s3681_r13144_r13146_p5855
mc20_13TeV.364255.Sherpa_222_NNPDF30NNLO_lvvv.deriv.DAOD_PHYSLITE.e5916_s3681_r13145_r13146_p5855
mc20_13TeV.364255.Sherpa_222_NNPDF30NNLO_lvvv.deriv.DAOD_PHYSLITE.e5916_s3681_r13167_r13146_p5855
mc20_13TeV.364283.Sherpa_222_NNPDF30NNLO_lllljj_EW6.deriv.DAOD_PHYSLITE.e6055_s3681_r13144_r13146_p5855
mc20_13TeV.364283.Sherpa_222_NNPDF30NNLO_lllljj_EW6.deriv.DAOD_PHYSLITE.e6055_s3681_r13145_r13146_p5855
mc20_13TeV.364283.Sherpa_222_NNPDF30NNLO_lllljj_EW6.deriv.DAOD_PHYSLITE.e6055_s3681_r13167_r13146_p5855
mc20_13TeV.364284.Sherpa_222_NNPDF30NNLO_lllvjj_EW6.deriv.DAOD_PHYSLITE.e6055_s3681_r13144_r13146_p5855
mc20_13TeV.364284.Sherpa_222_NNPDF30NNLO_lllvjj_EW6.deriv.DAOD_PHYSLITE.e6055_s3681_r13145_r13146_p5855
mc20_13TeV.364284.Sherpa_222_NNPDF30NNLO_lllvjj_EW6.deriv.DAOD_PHYSLITE.e6055_s3681_r13167_r13146_p5855
mc20_13TeV.364285.Sherpa_222_NNPDF30NNLO_llvvjj_EW6.deriv.DAOD_PHYSLITE.e6055_s3681_r13144_r13146_p5855
mc20_13TeV.364285.Sherpa_222_NNPDF30NNLO_llvvjj_EW6.deriv.DAOD_PHYSLITE.e6055_s3681_r13145_r13146_p5855
mc20_13TeV.364285.Sherpa_222_NNPDF30NNLO_llvvjj_EW6.deriv.DAOD_PHYSLITE.e6055_s3681_r13167_r13146_p5855
mc20_13TeV.364286.Sherpa_222_NNPDF30NNLO_llvvjj_ss_EW4.deriv.DAOD_PHYSLITE.e6055_s3681_r13144_r13146_p5855
mc20_13TeV.364286.Sherpa_222_NNPDF30NNLO_llvvjj_ss_EW4.deriv.DAOD_PHYSLITE.e6055_s3681_r13145_r13146_p5855
mc20_13TeV.364286.Sherpa_222_NNPDF30NNLO_llvvjj_ss_EW4.deriv.DAOD_PHYSLITE.e6055_s3681_r13167_r13146_p5855
mc20_13TeV.364287.Sherpa_222_NNPDF30NNLO_llvvjj_ss_EW6.deriv.DAOD_PHYSLITE.e6055_s3681_r13144_r13146_p5855
mc20_13TeV.364287.Sherpa_222_NNPDF30NNLO_llvvjj_ss_EW6.deriv.DAOD_PHYSLITE.e6055_s3681_r13145_r13146_p5855
mc20_13TeV.364287.Sherpa_222_NNPDF30NNLO_llvvjj_ss_EW6.deriv.DAOD_PHYSLITE.e6055_s3681_r13167_r13146_p5855
mc20_13TeV.364288.Sherpa_222_NNPDF30NNLO_llll_lowMllPtComplement.deriv.DAOD_PHYSLITE.e6096_s3681_r13144_r13146_p5855
mc20_13TeV.364288.Sherpa_222_NNPDF30NNLO_llll_lowMllPtComplement.deriv.DAOD_PHYSLITE.e6096_s3681_r13145_r13146_p5855
mc20_13TeV.364288.Sherpa_222_NNPDF30NNLO_llll_lowMllPtComplement.deriv.DAOD_PHYSLITE.e6096_s3681_r13167_r13146_p5855
mc20_13TeV.364289.Sherpa_222_NNPDF30NNLO_lllv_lowMllPtComplement.deriv.DAOD_PHYSLITE.e6133_s3681_r13144_r13146_p5855
mc20_13TeV.364289.Sherpa_222_NNPDF30NNLO_lllv_lowMllPtComplement.deriv.DAOD_PHYSLITE.e6133_s3681_r13145_r13146_p5855
mc20_13TeV.364289.Sherpa_222_NNPDF30NNLO_lllv_lowMllPtComplement.deriv.DAOD_PHYSLITE.e6133_s3681_r13167_r13146_p5855
mc20_13TeV.364290.Sherpa_222_NNPDF30NNLO_llvv_lowMllPtComplement.deriv.DAOD_PHYSLITE.e6096_s3681_r13144_r13146_p5855
mc20_13TeV.364290.Sherpa_222_NNPDF30NNLO_llvv_lowMllPtComplement.deriv.DAOD_PHYSLITE.e6096_s3681_r13145_r13146_p5855
mc20_13TeV.364290.Sherpa_222_NNPDF30NNLO_llvv_lowMllPtComplement.deriv.DAOD_PHYSLITE.e6096_s3681_r13167_r13146_p5855
