mc20_13TeV.346677.aMcAtNloPythia8EvtGen_tHjb125_4fl_CPalpha_0_gamgam.deriv.DAOD_PHYSLITE.e7815_s3681_r13167_p6266
mc20_13TeV.346677.aMcAtNloPythia8EvtGen_tHjb125_4fl_CPalpha_0_gamgam.deriv.DAOD_PHYSLITE.e7815_s3681_r13144_p6266
mc20_13TeV.346677.aMcAtNloPythia8EvtGen_tHjb125_4fl_CPalpha_0_gamgam.deriv.DAOD_PHYSLITE.e7815_s3681_r13145_p6266
