mc20_13TeV.603697.PhPy8EG_PDF4LHC21_HHbbyy_chhhm1p0.deriv.DAOD_PHYSLITE.e8564_a907_r14859_p6490
mc20_13TeV.603697.PhPy8EG_PDF4LHC21_HHbbyy_chhhm1p0.deriv.DAOD_PHYSLITE.e8564_a907_r14860_p6490
mc20_13TeV.603697.PhPy8EG_PDF4LHC21_HHbbyy_chhhm1p0.deriv.DAOD_PHYSLITE.e8564_a907_r14861_p6490
