mc23_13p6TeV.601491.PhPy8EG_A14_ttbar_pThard1_dil.deriv.DAOD_PHYSLITE.e8549_s4159_r15224_p6491
mc23_13p6TeV.601491.PhPy8EG_A14_ttbar_pThard1_dil.deriv.DAOD_PHYSLITE.e8549_s4162_r14622_p6491


mc23_13p6TeV.601497.PhPy8EG_A14_ttbar_pThard1_singlelep.deriv.DAOD_PHYSLITE.e8549_s4159_r15224_p6491
mc23_13p6TeV.601497.PhPy8EG_A14_ttbar_pThard1_singlelep.deriv.DAOD_PHYSLITE.e8549_s4162_r14622_p6491
