#Note that DSIDs:701040-701065 have newer p-tags as the e-tag has changed. Keep on mind when submitting the production
mc23_13p6TeV.701040.Sh_llll.deriv.DAOD_PHYS.e8582_s4162_r15540_p6491
mc23_13p6TeV.701040.Sh_llll.deriv.DAOD_PHYS.e8582_s4159_r15530_p6491
mc23_13p6TeV.701045.Sh_lllv.deriv.DAOD_PHYS.e8582_s4159_r15530_p6491
mc23_13p6TeV.701045.Sh_lllv.deriv.DAOD_PHYS.e8582_s4162_r15540_p6491
mc23_13p6TeV.701050.Sh_llvv_os.deriv.DAOD_PHYS.e8582_s4162_r15540_p6491
mc23_13p6TeV.701050.Sh_llvv_os.deriv.DAOD_PHYS.e8582_s4159_r15530_p6491
mc23_13p6TeV.701055.Sh_2214_llvv_ss.deriv.DAOD_PHYS.e8543_s4162_r14622_p6491
mc23_13p6TeV.701055.Sh_2214_llvv_ss.deriv.DAOD_PHYS.e8543_s4159_r15224_p6491
mc23_13p6TeV.701060.Sh_lvvv.deriv.DAOD_PHYS.e8582_s4162_r15540_p6491
mc23_13p6TeV.701060.Sh_lvvv.deriv.DAOD_PHYS.e8582_s4159_r15530_p6491
mc23_13p6TeV.701065.Sh_vvvv.deriv.DAOD_PHYS.e8582_s4162_r15540_p6491
mc23_13p6TeV.701065.Sh_vvvv.deriv.DAOD_PHYS.e8582_s4159_r15530_p6491
mc23_13p6TeV.701085.Sh_2214_ZqqZll.deriv.DAOD_PHYS.e8543_s4162_r14622_p6266
mc23_13p6TeV.701085.Sh_2214_ZqqZll.deriv.DAOD_PHYS.e8543_s4159_r15224_p6266
mc23_13p6TeV.701090.Sh_2214_ZbbZll.deriv.DAOD_PHYS.e8543_s4162_r14622_p6266
mc23_13p6TeV.701090.Sh_2214_ZbbZll.deriv.DAOD_PHYS.e8543_s4159_r15224_p6266
mc23_13p6TeV.701095.Sh_2214_ZqqZvv.deriv.DAOD_PHYS.e8543_s4162_r14622_p6266
mc23_13p6TeV.701095.Sh_2214_ZqqZvv.deriv.DAOD_PHYS.e8543_s4159_r15224_p6266
mc23_13p6TeV.701100.Sh_2214_ZbbZvv.deriv.DAOD_PHYS.e8543_s4162_r14622_p6266
mc23_13p6TeV.701100.Sh_2214_ZbbZvv.deriv.DAOD_PHYS.e8543_s4159_r15224_p6266
mc23_13p6TeV.701105.Sh_2214_WqqZll.deriv.DAOD_PHYS.e8543_s4162_r14622_p6266
mc23_13p6TeV.701105.Sh_2214_WqqZll.deriv.DAOD_PHYS.e8543_s4159_r15224_p6266
mc23_13p6TeV.701110.Sh_2214_WqqZvv.deriv.DAOD_PHYS.e8543_s4162_r14622_p6266
mc23_13p6TeV.701110.Sh_2214_WqqZvv.deriv.DAOD_PHYS.e8543_s4159_r15224_p6266
mc23_13p6TeV.701115.Sh_2214_WlvZqq.deriv.DAOD_PHYS.e8543_s4162_r14622_p6266
mc23_13p6TeV.701115.Sh_2214_WlvZqq.deriv.DAOD_PHYS.e8543_s4159_r15224_p6266
mc23_13p6TeV.701120.Sh_2214_WlvZbb.deriv.DAOD_PHYS.e8543_s4162_r14622_p6266
mc23_13p6TeV.701120.Sh_2214_WlvZbb.deriv.DAOD_PHYS.e8543_s4159_r15224_p6266
mc23_13p6TeV.701125.Sh_2214_WlvWqq.deriv.DAOD_PHYS.e8543_s4159_r15224_p6266
mc23_13p6TeV.701125.Sh_2214_WlvWqq.deriv.DAOD_PHYS.e8543_s4162_r14622_p6266
