mc20_13TeV.364242.Sherpa_222_NNPDF30NNLO_WWW_3l3v_EW6.deriv.DAOD_PHYSLITE.e5887_s3681_r13144_p6266
mc20_13TeV.364242.Sherpa_222_NNPDF30NNLO_WWW_3l3v_EW6.deriv.DAOD_PHYSLITE.e5887_s3681_r13145_p6266
mc20_13TeV.364242.Sherpa_222_NNPDF30NNLO_WWW_3l3v_EW6.deriv.DAOD_PHYSLITE.e5887_s3681_r13167_p6266

mc20_13TeV.364243.Sherpa_222_NNPDF30NNLO_WWZ_4l2v_EW6.deriv.DAOD_PHYSLITE.e5887_s3681_r13144_p6266
mc20_13TeV.364243.Sherpa_222_NNPDF30NNLO_WWZ_4l2v_EW6.deriv.DAOD_PHYSLITE.e5887_s3681_r13145_p6266
mc20_13TeV.364243.Sherpa_222_NNPDF30NNLO_WWZ_4l2v_EW6.deriv.DAOD_PHYSLITE.e5887_s3681_r13167_p6266

mc20_13TeV.364244.Sherpa_222_NNPDF30NNLO_WWZ_2l4v_EW6.deriv.DAOD_PHYSLITE.e5887_s3681_r13144_p6266
mc20_13TeV.364244.Sherpa_222_NNPDF30NNLO_WWZ_2l4v_EW6.deriv.DAOD_PHYSLITE.e5887_s3681_r13145_p6266
mc20_13TeV.364244.Sherpa_222_NNPDF30NNLO_WWZ_2l4v_EW6.deriv.DAOD_PHYSLITE.e5887_s3681_r13167_p6266

mc20_13TeV.364245.Sherpa_222_NNPDF30NNLO_WZZ_5l1v_EW6.deriv.DAOD_PHYSLITE.e5887_s3681_r13144_p6266
mc20_13TeV.364245.Sherpa_222_NNPDF30NNLO_WZZ_5l1v_EW6.deriv.DAOD_PHYSLITE.e5887_s3681_r13145_p6266
mc20_13TeV.364245.Sherpa_222_NNPDF30NNLO_WZZ_5l1v_EW6.deriv.DAOD_PHYSLITE.e5887_s3681_r13167_p6266

mc20_13TeV.364246.Sherpa_222_NNPDF30NNLO_WZZ_3l3v_EW6.deriv.DAOD_PHYSLITE.e5887_s3681_r13144_p6266
mc20_13TeV.364246.Sherpa_222_NNPDF30NNLO_WZZ_3l3v_EW6.deriv.DAOD_PHYSLITE.e5887_s3681_r13145_p6266
mc20_13TeV.364246.Sherpa_222_NNPDF30NNLO_WZZ_3l3v_EW6.deriv.DAOD_PHYSLITE.e5887_s3681_r13167_p6266

mc20_13TeV.364247.Sherpa_222_NNPDF30NNLO_ZZZ_6l0v_EW6.deriv.DAOD_PHYSLITE.e5887_s3681_r13144_p6266
mc20_13TeV.364247.Sherpa_222_NNPDF30NNLO_ZZZ_6l0v_EW6.deriv.DAOD_PHYSLITE.e5887_s3681_r13145_p6266
mc20_13TeV.364247.Sherpa_222_NNPDF30NNLO_ZZZ_6l0v_EW6.deriv.DAOD_PHYSLITE.e5887_s3681_r13167_p6266

mc20_13TeV.364248.Sherpa_222_NNPDF30NNLO_ZZZ_4l2v_EW6.deriv.DAOD_PHYSLITE.e5887_s3681_r13144_p6266
mc20_13TeV.364248.Sherpa_222_NNPDF30NNLO_ZZZ_4l2v_EW6.deriv.DAOD_PHYSLITE.e5887_s3681_r13145_p6266
mc20_13TeV.364248.Sherpa_222_NNPDF30NNLO_ZZZ_4l2v_EW6.deriv.DAOD_PHYSLITE.e5887_s3681_r13167_p6266

mc20_13TeV.364249.Sherpa_222_NNPDF30NNLO_ZZZ_2l4v_EW6.deriv.DAOD_PHYSLITE.e5887_s3681_r13144_p6266
mc20_13TeV.364249.Sherpa_222_NNPDF30NNLO_ZZZ_2l4v_EW6.deriv.DAOD_PHYSLITE.e5887_s3681_r13145_p6266
mc20_13TeV.364249.Sherpa_222_NNPDF30NNLO_ZZZ_2l4v_EW6.deriv.DAOD_PHYSLITE.e5887_s3681_r13167_p6266

mc20_13TeV.364336.Sherpa_222_NNPDF30NNLO_WpWpWn_sslvlvjj_EW6.deriv.DAOD_PHYSLITE.e6377_s3681_r13144_p6266
mc20_13TeV.364336.Sherpa_222_NNPDF30NNLO_WpWpWn_sslvlvjj_EW6.deriv.DAOD_PHYSLITE.e6377_s3681_r13145_p6266
mc20_13TeV.364336.Sherpa_222_NNPDF30NNLO_WpWpWn_sslvlvjj_EW6.deriv.DAOD_PHYSLITE.e6377_s3681_r13167_p6266

mc20_13TeV.364337.Sherpa_222_NNPDF30NNLO_WnWnWp_sslvlvjj_EW6.deriv.DAOD_PHYSLITE.e6377_s3681_r13144_p6266
mc20_13TeV.364337.Sherpa_222_NNPDF30NNLO_WnWnWp_sslvlvjj_EW6.deriv.DAOD_PHYSLITE.e6377_s3681_r13145_p6266
mc20_13TeV.364337.Sherpa_222_NNPDF30NNLO_WnWnWp_sslvlvjj_EW6.deriv.DAOD_PHYSLITE.e6377_s3681_r13167_p6266

mc20_13TeV.364338.Sherpa_222_NNPDF30NNLO_WpWpWn_oslvlvjj_EW6.deriv.DAOD_PHYSLITE.e6377_s3681_r13144_p6266
mc20_13TeV.364338.Sherpa_222_NNPDF30NNLO_WpWpWn_oslvlvjj_EW6.deriv.DAOD_PHYSLITE.e6377_s3681_r13145_p6266
mc20_13TeV.364338.Sherpa_222_NNPDF30NNLO_WpWpWn_oslvlvjj_EW6.deriv.DAOD_PHYSLITE.e6377_s3681_r13167_p6266

mc20_13TeV.364339.Sherpa_222_NNPDF30NNLO_WnWnWp_oslvlvjj_EW6.deriv.DAOD_PHYSLITE.e6377_s3681_r13144_p6266
mc20_13TeV.364339.Sherpa_222_NNPDF30NNLO_WnWnWp_oslvlvjj_EW6.deriv.DAOD_PHYSLITE.e6377_s3681_r13145_p6266
mc20_13TeV.364339.Sherpa_222_NNPDF30NNLO_WnWnWp_oslvlvjj_EW6.deriv.DAOD_PHYSLITE.e6377_s3681_r13167_p6266

