mc20_13TeV.700770.Sh_2214_eegamma.deriv.DAOD_PHYS.e8547_s3797_r13144_p6266
mc20_13TeV.700770.Sh_2214_eegamma.deriv.DAOD_PHYS.e8547_s3797_r13145_p6266
mc20_13TeV.700770.Sh_2214_eegamma.deriv.DAOD_PHYS.e8547_s3797_r13167_p6266
mc20_13TeV.700771.Sh_2214_mumugamma.deriv.DAOD_PHYS.e8547_s3797_r13144_p6266
mc20_13TeV.700771.Sh_2214_mumugamma.deriv.DAOD_PHYS.e8547_s3797_r13145_p6266
mc20_13TeV.700771.Sh_2214_mumugamma.deriv.DAOD_PHYS.e8547_s3797_r13167_p6266
mc20_13TeV.700772.Sh_2214_tautaugamma.deriv.DAOD_PHYS.e8547_s3797_r13144_p6266
mc20_13TeV.700772.Sh_2214_tautaugamma.deriv.DAOD_PHYS.e8547_s3797_r13145_p6266
mc20_13TeV.700772.Sh_2214_tautaugamma.deriv.DAOD_PHYS.e8547_s3797_r13167_p6266
mc20_13TeV.700873.Sh_2214_eegammagamma.deriv.DAOD_PHYS.e8536_s3681_r13144_p6266
mc20_13TeV.700873.Sh_2214_eegammagamma.deriv.DAOD_PHYS.e8536_s3681_r13145_p6266
mc20_13TeV.700873.Sh_2214_eegammagamma.deriv.DAOD_PHYS.e8536_s3681_r13167_p6266
mc20_13TeV.700874.Sh_2214_mumugammagamma.deriv.DAOD_PHYS.e8536_s3681_r13144_p6266
mc20_13TeV.700874.Sh_2214_mumugammagamma.deriv.DAOD_PHYS.e8536_s3681_r13145_p6266
mc20_13TeV.700874.Sh_2214_mumugammagamma.deriv.DAOD_PHYS.e8536_s3681_r13167_p6266
mc20_13TeV.700875.Sh_2214_tautaugammagamma.deriv.DAOD_PHYS.e8536_s3681_r13144_p6266
mc20_13TeV.700875.Sh_2214_tautaugammagamma.deriv.DAOD_PHYS.e8536_s3681_r13145_p6266
mc20_13TeV.700875.Sh_2214_tautaugammagamma.deriv.DAOD_PHYS.e8536_s3681_r13167_p6266
