mc20_13TeV.700493.Sh_2211_ZqqZll.deriv.DAOD_PHYS.e8338_s3681_r13167_p6490
mc20_13TeV.700493.Sh_2211_ZqqZll.deriv.DAOD_PHYS.e8338_s3681_r13144_p6490
mc20_13TeV.700493.Sh_2211_ZqqZll.deriv.DAOD_PHYS.e8338_s3681_r13145_p6490

mc20_13TeV.700492.Sh_2211_WqqZll.deriv.DAOD_PHYS.e8338_s3681_r13167_p6490
mc20_13TeV.700492.Sh_2211_WqqZll.deriv.DAOD_PHYS.e8338_s3681_r13144_p6490
mc20_13TeV.700492.Sh_2211_WqqZll.deriv.DAOD_PHYS.e8338_s3681_r13145_p6490

mc20_13TeV.700488.Sh_2211_WlvWqq.deriv.DAOD_PHYS.e8338_s3681_r13167_p6490
mc20_13TeV.700488.Sh_2211_WlvWqq.deriv.DAOD_PHYS.e8338_s3681_r13144_p6490
mc20_13TeV.700488.Sh_2211_WlvWqq.deriv.DAOD_PHYS.e8338_s3681_r13145_p6490

mc20_13TeV.700489.Sh_2211_WlvZqq.deriv.DAOD_PHYS.e8338_s3681_r13167_p6490
mc20_13TeV.700489.Sh_2211_WlvZqq.deriv.DAOD_PHYS.e8338_s3681_r13144_p6490
mc20_13TeV.700489.Sh_2211_WlvZqq.deriv.DAOD_PHYS.e8338_s3681_r13145_p6490
